{
    "ios": {
        "debug": {
            "codeSignIdentitiy": "iPhone Development",
            "provisioningProfile": "fa3afaae-e152-4b51-8fe9-118fa21bd2d2"
        },
        "release": {
            "codeSignIdentitiy": "iPhone Distribution",
            "provisioningProfile": "732333df-431a-443b-b97c-c3e93b6e0370"
        }
    },

    "android": {
        "release": {
            "keystore": "RocketChat.keystore",
            "storePassword": "",
            "alias": "SineRC",
            "password" : "",
            "keystoreType": ""
        }
    }
}
